Regresión lineal y logístia
…
¿Qué tan bueno es nuestro modelo clasificando?

glm_predicciones <- glm_modelo %>%
  predict(new_data = fumar_testeo_prep) %>%
  bind_cols(fumar_testeo_prep %>% select(muerte))

glm_predicciones

## # A tibble: 394 x 2
##    .pred_class muerte
##    <fct>       <fct> 
##  1 1           1     
##  2 0           0     
##  3 0           0     
##  4 0           0     
##  5 0           0     
##  6 1           0     
##  7 0           1     
##  8 0           0     
##  9 0           0     
## 10 1           1     
## # … with 384 more rows
…
